\select@language {portuges}
\contentsline {figure}{\numberline {1}{\ignorespaces Agente aspirador de p\IeC {\'o}\relax }}{19}
\contentsline {figure}{\numberline {2}{\ignorespaces Tabela de fun\IeC {\c c}\IeC {\~o}es do agente aspirador de p\IeC {\'o}\relax }}{20}
