\relax 
\citation{abnt-nbr10520=2002}
\citation{abnt-etal-cite=3}
\citation{abnt-full-initials=yes}
\catcode `"\active 
\bibstyle{abnt-alf}
\providecommand\@newglossary[4]{}
\@newglossary{acronym}{alg}{acr}{acn}
\@newglossary{glossarytype}{gte}{not}{ntn}
\providecommand\@glsorder[1]{}
\providecommand\@istfilename[1]{}
\@istfilename{dissertacao-necio.ist}
\@glsorder{letter}
\select@language{portuges}
\@writefile{toc}{\select@language{portuges}}
\@writefile{lof}{\select@language{portuges}}
\@writefile{lot}{\select@language{portuges}}
\citation{brasil2012}
\citation{ladeira2011}
\citation{brasil2012}
\citation{brasil2012}
\@writefile{toc}{\contentsline {chapter}{\numberline {1}Introdu\IeC {\c c}\IeC {\~a}o}{12}}
\newlabel{chapter:introducao}{{1}{12}}
\@writefile{toc}{\contentsline {section}{\numberline {1.1}Motiva\IeC {\c c}\IeC {\~a}o}{12}}
\citation{brasil2012}
\citation{silvaferramenta}
\citation{barbosa2010sistemas}
\@writefile{toc}{\contentsline {section}{\numberline {1.2}Relev\IeC {\^a}ncia}{14}}
\@writefile{toc}{\contentsline {section}{\numberline {1.3}Objetivos}{15}}
\@writefile{toc}{\contentsline {section}{\numberline {1.4}Organiza\IeC {\c c}\IeC {\~a}o do trabalho}{16}}
\citation{constituicao88}
\citation{pnab2012}
\@writefile{toc}{\contentsline {chapter}{\numberline {2}Referencial Te\IeC {\'o}rico}{17}}
\newlabel{chapter:refTeorico}{{2}{17}}
\@writefile{toc}{\contentsline {section}{\numberline {2.1}O Sistema \IeC {\'U}nico de Sa\IeC {\'u}de, Aten\IeC {\c c}\IeC {\~a}o B\IeC {\'a}sica e o PMAQ}{17}}
\citation{russell2003inteligencia}
\@writefile{toc}{\contentsline {section}{\numberline {2.2}Conceitos e fundamentos dos agentes inteligentes}{19}}
\@writefile{lof}{\contentsline {figure}{\numberline {1}{\ignorespaces Agente aspirador de p\IeC {\'o}\relax }}{19}}
\providecommand*\caption@xref[2]{\@setref\relax\@undefined{#1}}
\newlabel{fig:agentePo}{{1}{19}}
\citation{russell2003artificial}
\citation{jennings1998agent}
\@writefile{lof}{\contentsline {figure}{\numberline {2}{\ignorespaces Tabela de fun\IeC {\c c}\IeC {\~o}es do agente aspirador de p\IeC {\'o}\relax }}{20}}
\newlabel{fig:tabelaAgentePo}{{2}{20}}
\@writefile{toc}{\contentsline {subsection}{\numberline {2.2.1}Arquiteruas de agentes}{20}}
\@writefile{toc}{\contentsline {subsection}{\numberline {2.2.2}Ambientes de agentes}{20}}
\@writefile{toc}{\contentsline {subsection}{\numberline {2.2.3}Sistemas multiagentes}{20}}
\citation{boissier1993probleme}
\citation{sichman2003raciocinio}
\citation{freitasde2010otimizaccao}
\citation{silveira2003aplicaccao}
\citation{cormen2002algoritmos}
\citation{bueno2010heuristicas}
\@writefile{toc}{\contentsline {section}{\numberline {2.3}Otimiza\IeC {\c c}\IeC {\~a}o Combinat\IeC {\'o}ria}{21}}
\citation{silveira2003aplicaccao}
\citation{silvaferramenta}
\citation{brasil2007}
\citation{brasil2012}
\citation{isern2010agents}
\citation{ladeira2011}
\citation{russell2003inteligencia}
\citation{wooldridge2008introduction}
\@writefile{toc}{\contentsline {subsection}{\numberline {2.3.1}Metaheur\IeC {\'\i }sticas de busca local}{22}}
\@writefile{toc}{\contentsline {section}{\numberline {2.4}Simula\IeC {\c c}\IeC {\~a}o baseada em agentes}{22}}
\citation{oliveira}
\citation{silvaferramenta}
\citation{silvaferramenta}
\@writefile{toc}{\contentsline {chapter}{\numberline {3}Trabalhos Relacionados}{23}}
\newlabel{chapter:trabRelacionados}{{3}{23}}
\citation{barbosa2010sistemas}
\citation{braun2005agent}
\citation{vermeulen2009adaptive}
\@writefile{toc}{\contentsline {section}{\numberline {3.1}Crit\IeC {\'e}rios de compara\IeC {\c c}\IeC {\~a}o entre a proposta e os trabalhos relacionados}{26}}
\@writefile{toc}{\contentsline {chapter}{\numberline {4}O problema do planejamento de atendimentos na aten\IeC {\c c}\IeC {\~a}o prim\IeC {\'a}ria}{28}}
\newlabel{chapter:problema}{{4}{28}}
\@writefile{toc}{\contentsline {chapter}{\numberline {5}Abordagem proposta}{29}}
\newlabel{chapter:abordagem}{{5}{29}}
\@writefile{toc}{\contentsline {chapter}{\numberline {6}Simula\IeC {\c c}\IeC {\~o}es}{30}}
\newlabel{chapter:simulacoes}{{6}{30}}
\bibdata{abnt-options,references}
\@writefile{toc}{\contentsline {chapter}{\numberline {7}Considera\IeC {\c c}\IeC {\~o}es finais}{31}}
\newlabel{chapter:consideracoesFinais}{{7}{31}}
\bibcite{barbosa2010sistemas}{Barbosa e Forster 2010}
\bibcite{barbosa2010sistemas++EXPL}{Barbosa e Forster}
\bibcite{barbosa2010sistemas++IMPL}{BARBOSA; FORSTER}
\bibcite{barbosa2010sistemas++YEAR}{2010}
\bibcite{boissier1993probleme}{Boissier 1993}
\bibcite{boissier1993probleme++EXPL}{Boissier}
\bibcite{boissier1993probleme++IMPL}{BOISSIER}
\bibcite{boissier1993probleme++YEAR}{1993}
\bibcite{constituicao88}{Brasil {} 1988}
\bibcite{constituicao88++EXPL}{Brasil}
\bibcite{constituicao88++IMPL}{BRASIL}
\bibcite{constituicao88++YEAR}{1988}
\bibcite{pnab2012}{BRASIL 2012}
\bibcite{pnab2012++EXPL}{BRASIL}
\bibcite{pnab2012++IMPL}{BRASIL}
\bibcite{pnab2012++YEAR}{2012a}
\bibcite{brasil2012}{BRASIL 2012}
\bibcite{brasil2012++EXPL}{BRASIL}
\bibcite{brasil2012++IMPL}{BRASIL}
\bibcite{brasil2012++YEAR}{2012b}
\bibcite{braun2005agent}{Braun et al. 2005}
\bibcite{braun2005agent++EXPL}{Braun et al.}
\bibcite{braun2005agent++IMPL}{BRAUN et al.}
\bibcite{braun2005agent++YEAR}{2005}
\bibcite{bueno2010heuristicas}{Bueno 2010}
\bibcite{bueno2010heuristicas++EXPL}{Bueno}
\bibcite{bueno2010heuristicas++IMPL}{BUENO}
\bibcite{bueno2010heuristicas++YEAR}{2010}
\bibcite{cormen2002algoritmos}{Cormen 2002}
\bibcite{cormen2002algoritmos++EXPL}{Cormen}
\bibcite{cormen2002algoritmos++IMPL}{CORMEN}
\bibcite{cormen2002algoritmos++YEAR}{2002}
\bibcite{freitasde2010otimizaccao}{Freitas et al. 2010}
\bibcite{freitasde2010otimizaccao++EXPL}{Freitas et al.}
\bibcite{freitasde2010otimizaccao++IMPL}{FREITAS et al.}
\bibcite{freitasde2010otimizaccao++YEAR}{2010}
\bibcite{isern2010agents}{Isern, S{\'a}nchez e Moreno 2010}
\bibcite{isern2010agents++EXPL}{Isern, S{\'a}nchez e Moreno}
\bibcite{isern2010agents++IMPL}{ISERN; S{\'A}NCHEZ; MORENO}
\bibcite{isern2010agents++YEAR}{2010}
\bibcite{jennings1998agent}{Jennings, Jennings e Wooldridge 1998}
\bibcite{jennings1998agent++EXPL}{Jennings, Jennings e Wooldridge}
\bibcite{jennings1998agent++IMPL}{JENNINGS; JENNINGS; WOOLDRIDGE}
\bibcite{jennings1998agent++YEAR}{1998}
\bibcite{ladeira2011}{Ladeira 2011}
\bibcite{ladeira2011++EXPL}{Ladeira}
\bibcite{ladeira2011++IMPL}{LADEIRA}
\bibcite{ladeira2011++YEAR}{2011}
\bibcite{oliveira}{Oliveira et al. 2012}
\bibcite{oliveira++EXPL}{Oliveira et al.}
\bibcite{oliveira++IMPL}{OLIVEIRA et al.}
\bibcite{oliveira++YEAR}{2012}
\bibcite{russell2003artificial}{Russell 2003}
\bibcite{russell2003artificial++EXPL}{Russell}
\bibcite{russell2003artificial++IMPL}{RUSSELL}
\bibcite{russell2003artificial++YEAR}{2003}
\bibcite{russell2003inteligencia}{Russell e Norvig 2003}
\bibcite{russell2003inteligencia++EXPL}{Russell e Norvig}
\bibcite{russell2003inteligencia++IMPL}{RUSSELL; NORVIG}
\bibcite{russell2003inteligencia++YEAR}{2003}
\bibcite{sichman2003raciocinio}{Sichman 2003}
\bibcite{sichman2003raciocinio++EXPL}{Sichman}
\bibcite{sichman2003raciocinio++IMPL}{SICHMAN}
\bibcite{sichman2003raciocinio++YEAR}{2003}
\bibcite{silvaferramenta}{Silva et al. 2012}
\bibcite{silvaferramenta++EXPL}{Silva et al.}
\bibcite{silvaferramenta++IMPL}{SILVA et al.}
\bibcite{silvaferramenta++YEAR}{2012}
\@writefile{toc}{\contentsline {chapter}{\hbox to\@tempdima {\hfil }Refer\IeC {\^e}ncias}{32}}
\bibcite{silveira2003aplicaccao}{SILVEIRA e MOURA 2003}
\bibcite{silveira2003aplicaccao++EXPL}{SILVEIRA e MOURA}
\bibcite{silveira2003aplicaccao++IMPL}{SILVEIRA; MOURA}
\bibcite{silveira2003aplicaccao++YEAR}{2003}
\bibcite{vermeulen2009adaptive}{Vermeulen et al. 2009}
\bibcite{vermeulen2009adaptive++EXPL}{Vermeulen et al.}
\bibcite{vermeulen2009adaptive++IMPL}{VERMEULEN et al.}
\bibcite{vermeulen2009adaptive++YEAR}{2009}
\bibcite{wooldridge2008introduction}{Wooldridge 2008}
\bibcite{wooldridge2008introduction++EXPL}{Wooldridge}
\bibcite{wooldridge2008introduction++IMPL}{WOOLDRIDGE}
\bibcite{wooldridge2008introduction++YEAR}{2008}
\newlabel{LastPage}{{}{33}}
\xdef\lastpage@lastpage{33}
\gdef\lastpage@lastpageHy{}
